<svg width="16" height="16" viewBox="0 0 16 16" xmlns="http://www.w3.org/2000/svg">
	<path fill-rule="evenodd" clip-rule="evenodd"
		d="M13.8047 3.529C14.0651 3.78935 14.0651 4.21146 13.8047 4.47181L6.4714 11.8051C6.21106 12.0655 5.78894 12.0655 5.5286 11.8051L2.19526 8.47181C1.93491 8.21146 1.93491 7.78935 2.19526 7.529C2.45561 7.26865 2.87772 7.26865 3.13807 7.529L6 10.3909L12.8619 3.529C13.1223 3.26865 13.5444 3.26865 13.8047 3.529Z"
		/>
</svg>
