<svg width="48" height="48" viewBox="0 0 48 48" fill="none" xmlns="http://www.w3.org/2000/svg">
<circle cx="24" cy="24.0005" r="24" fill="#2A62D3"/>
<path fill-rule="evenodd" clip-rule="evenodd" d="M19.3036 15.534C19.5788 15.3838 19.9141 15.3958 20.1778 15.5653L32.1778 23.2796C32.4232 23.4373 32.5715 23.709 32.5715 24.0006C32.5715 24.2923 32.4232 24.5639 32.1778 24.7216L20.1778 32.4359C19.9141 32.6055 19.5788 32.6175 19.3036 32.4672C19.0284 32.317 18.8572 32.0285 18.8572 31.7149V16.2863C18.8572 15.9728 19.0284 15.6843 19.3036 15.534ZM20.5715 17.8563V30.1449L30.1292 24.0006L20.5715 17.8563Z" fill="white"/>
</svg>
